-------------------------------------------------------------------------------
Test set: com.techu.ejercicio1.Ejercicio1ApplicationTests
-------------------------------------------------------------------------------
Tests run: 1, Failures: 0, Errors: 0, Skipped: 0, Time elapsed: 0.027 s - in com.techu.ejercicio1.Ejercicio1ApplicationTests
